item_weapon_melee

[OBJECT:ITEM]

==========Blades==========

[ITEM_WEAPON:ITEM_WEAPON_KNIFE]
[NAME:knife:knives]
[SIZE:200]
[SKILL:DAGGER]
[TWO_HANDED:27500]
[MINIMUM_SIZE:5000]
[MATERIAL_SIZE:1]
[ATTACK:EDGE:5:1000:stab:stabs:NO_SUB:1000]
[ATTACK:EDGE:700:150:slash:slashes:NO_SUB:1150]
[ATTACK:BLUNT:20:60:strike:strikes:handle:1000]

[ITEM_WEAPON:ITEM_WEAPON_KNIFE_COMBAT]
[NAME:combat knife:combat knives]
[SIZE:220]
[SKILL:DAGGER]
[TWO_HANDED:27500]
[MINIMUM_SIZE:5000]
[MATERIAL_SIZE:1]
[ATTACK:EDGE:775:225:slash:slashes:NO_SUB:1350]
[ATTACK:EDGE:10:1100:stab:stabs:NO_SUB:1200]
[ATTACK:BLUNT:20:70:strike:strikes:handle:1200]

[ITEM_WEAPON:ITEM_WEAPON_RIPPER]
[NAME:ripper:rippers]
[SIZE:300]
[SKILL:DAGGER]
[TWO_HANDED:37500]
[MINIMUM_SIZE:32500]
[MATERIAL_SIZE:3]
[ATTACK:EDGE:30:1300:stab:stabs:NO_SUB:3500]
[ATTACK:EDGE:8000:2500:slash:slashes:NO_SUB:3500]
[ATTACK:BLUNT:30:50:strike:strikes:handle:1000]

[ITEM_WEAPON:ITEM_WEAPON_MACHETE]
[NAME:machete:machetes]
[SIZE:300]
[SKILL:SWORD]
[TWO_HANDED:37500]
[MINIMUM_SIZE:32500]
[MATERIAL_SIZE:2]
[ATTACK:EDGE:15000:1150:hack:hacks:NO_SUB:1500]
[ATTACK:EDGE:50:1000:stab:stabs:NO_SUB:1500]
[ATTACK:BLUNT:20:80:strike:strikes:grip:1000]

[ITEM_WEAPON:ITEM_WEAPON_CHAINSWORD]
[NAME:chainsword:chainswords]
[SIZE:350]
[SKILL:SWORD]
[TWO_HANDED:37500]
[MINIMUM_SIZE:32500]
[MATERIAL_SIZE:3]
[ATTACK:EDGE:25000:8000:gut:guts:NO_SUB:3500]
[ATTACK:EDGE:50:2000:stab:stabs:NO_SUB:1000]
[ATTACK:BLUNT:60:80:strike:strikes:handle:1000]

[ITEM_WEAPON:ITEM_WEAPON_CLEAVER]
[NAME:cleaver:cleavers]
[SIZE:300]
[SKILL:SWORD]
[TWO_HANDED:37500]
[MINIMUM_SIZE:32500]
[MATERIAL_SIZE:3]
[ATTACK:EDGE:3000:500:chop:chops:NO_SUB:1250]
[ATTACK:BLUNT:5000:20:slap:slaps:flat:1250]
[ATTACK:BLUNT:50:80:strike:strikes:handle:1000]

==========Whips==========

[ITEM_WEAPON:ITEM_WEAPON_WHIP_SLAVE]
[NAME:slaver whip:slaver whips]
[SIZE:300]
[SKILL:WHIP]
[TWO_HANDED:27500]
[MINIMUM_SIZE:22500]
[MATERIAL_SIZE:1]
[ATTACK:EDGE:20:50:lash:lashes:NO_SUB:3000]

[ITEM_WEAPON:ITEM_WEAPON_SCOURGE]
[NAME:scourge:scourges]
[SIZE:300]
[SKILL:WHIP]
[TWO_HANDED:27500]
[MINIMUM_SIZE:22500]
[MATERIAL_SIZE:1]
[ATTACK:EDGE:30:100:lash:lashes:NO_SUB:2000]

[ITEM_WEAPON:ITEM_WEAPON_FLAIL]
[NAME:flail:flails]
[SIZE:500]
[SKILL:WHIP]
[TWO_HANDED:47500]
[MINIMUM_SIZE:42500]
[MATERIAL_SIZE:2]
[ATTACK:BLUNT:200:2000:bash:bashes:NO_SUB:2500]

==========Hammers==========

[ITEM_WEAPON:ITEM_WEAPON_MORNINGSTAR]
[NAME:morningstar:morningstars]
[SIZE:500]
[SKILL:MACE]
[TWO_HANDED:37500]
[MINIMUM_SIZE:32500]
[MATERIAL_SIZE:3]
[ATTACK:EDGE:10:500:bash:bashes:NO_SUB:2000]
[ATTACK:BLUNT:50:100:strike:strikes:handle:1000]

[ITEM_WEAPON:ITEM_WEAPON_MACE_SPIKED]
[NAME:spiked mace:spiked maces]
[SIZE:400]
[SKILL:MACE]
[TWO_HANDED:37500]
[MINIMUM_SIZE:32500]
[MATERIAL_SIZE:3]
[ATTACK:BLUNT:10:500:bash:bashes:NO_SUB:2000]

[ITEM_WEAPON:ITEM_WEAPON_SLEDGEHAMMER]
[NAME:sledgehammer:sledgehammers]
[SIZE:1000]
[SKILL:HAMMER]
[TWO_HANDED:77500]
[MINIMUM_SIZE:62500]
[MATERIAL_SIZE:6]
[ATTACK:BLUNT:200:6000:bash:bashes:NO_SUB:2000]

[ITEM_WEAPON:ITEM_WEAPON_SLEDGEHAMMER_KINETIC]
[NAME:kinetic sledgehammer:kinetic sledgehammers]
[SIZE:1000]
[SKILL:HAMMER]
[TWO_HANDED:77500]
[MINIMUM_SIZE:62500]
[MATERIAL_SIZE:6]
[ATTACK:BLUNT:100:10000:bludgeon:bludgeons:head:6000]

[ITEM_WEAPON:ITEM_WEAPON_BATON]
[NAME:security baton:security batons]
[SIZE:400]
[SKILL:MACE]
[TWO_HANDED:37500]
[MINIMUM_SIZE:32500]
[MATERIAL_SIZE:3]
[ATTACK:BLUNT:300:2000:bash:bashes:NO_SUB:2600]

==========Axes==========

[ITEM_WEAPON:ITEM_WEAPON_SHOVEL]
[NAME:shovel:shovels]
[SIZE:500]
[SKILL:MINING]
[TWO_HANDED:47500]
[MINIMUM_SIZE:42500]
[MATERIAL_SIZE:4]
[ATTACK:EDGE:5000:600:slash:slashes:NO_SUB:1250]
[ATTACK:BLUNT:5000:1000:slap:slaps:flat:1250]
[ATTACK:BLUNT:100:200:strike:strikes:handle:1000]

[ITEM_WEAPON:ITEM_WEAPON_HACKSAW]
[NAME:hacksaw:hacksaws]
[SIZE:500]
[SKILL:AXE]
[TWO_HANDED:47500]
[MINIMUM_SIZE:42500]
[MATERIAL_SIZE:3]
[ATTACK:EDGE:10000:800:hack:hacks:NO_SUB:1250]
[ATTACK:BLUNT:12000:200:slap:slaps:flat:1250]
[ATTACK:BLUNT:100:200:strike:strikes:handle:1000]

[ITEM_WEAPON:ITEM_WEAPON_CHAINSAW]
[NAME:chainsaw:chainsaws]
[SIZE:800]
[SKILL:AXE]
[TWO_HANDED:72500]
[MINIMUM_SIZE:42500]
[MATERIAL_SIZE:5]
[ATTACK:EDGE:25000:5000:saw:saws:NO_SUB:4500]
[ATTACK:BLUNT:18000:300:slap:slaps:flat:1250]
[ATTACK:BLUNT:100:200:strike:strikes:handle:1000]

[ITEM_WEAPON:ITEM_WEAPON_CHAINSAW_DEPLETED]
[NAME:chainsaw:chainsaws]
[ADJECTIVE:depleted]
[SIZE:800]
[SKILL:AXE]
[TWO_HANDED:72500]
[MINIMUM_SIZE:42500]
[MATERIAL_SIZE:5]
[ATTACK:BLUNT:25000:1300:hack:hacks:NO_SUB:1250]
[ATTACK:BLUNT:18000:300:slap:slaps:flat:1250]
[ATTACK:BLUNT:100:200:strike:strikes:handle:1000]

==========Spears==========

[ITEM_WEAPON:ITEM_WEAPON_DRILL]
[NAME:power drill:power drills]
[SIZE:500]
[SKILL:MINING]
[TWO_HANDED:47500]
[MINIMUM_SIZE:42500]
[MATERIAL_SIZE:4]
[ATTACK:EDGE:10:3000:drill:drills:NO_SUB:2000]

[ITEM_WEAPON:ITEM_WEAPON_PITCHFORK]
[NAME:pitchfork:pitchforks]
[SIZE:400]
[SKILL:SPEAR]
[TWO_HANDED:52500]
[MINIMUM_SIZE:37500]
[MATERIAL_SIZE:3]
[ATTACK:EDGE:20:5000:jab:jabs:NO_SUB:1000]
[ATTACK:EDGE:20:5000:stab:stabs:NO_SUB:1200]
[ATTACK:BLUNT:50:30:bash:bashes:shaft:1250]

[ITEM_WEAPON:ITEM_WEAPON_SPEAR_JAGGED]
[NAME:spear:spears]
[ADJECTIVE:jagged]
[SIZE:400]
[SKILL:SPEAR]
[TWO_HANDED:47500]
[MINIMUM_SIZE:5000] amphibian men, etc., need variants
[MATERIAL_SIZE:3]
[ATTACK:EDGE:25:6800:stab:stabs:NO_SUB:1000]
[ATTACK:BLUNT:400:160:bash:bashes:shaft:1250]

[ITEM_WEAPON:ITEM_WEAPON_LANCE_ENERGY_DEPLETED]
[NAME:depleted energy lance:depleted energy lances]
[SIZE:600]
[SKILL:SPEAR]
[TWO_HANDED:57500]
[MINIMUM_SIZE:52500]
[MATERIAL_SIZE:4]
[ATTACK:EDGE:5:8000:stab:stabs:NO_SUB:1000]
[ATTACK:BLUNT:500:300:bash:bashes:shaft:1250]

[ITEM_WEAPON:ITEM_WEAPON_LANCE_ENERGY]
[NAME:energy lance:energy lances]
[SIZE:600]
[SKILL:SPEAR]
[TWO_HANDED:57500]
[MINIMUM_SIZE:52500]
[MATERIAL_SIZE:4]
[ATTACK:EDGE:5:10000:pierce:pierces:NO_SUB:5000]
[ATTACK:BLUNT:500:300:bash:bashes:shaft:1250]

==========Training==========

[ITEM_WEAPON:ITEM_WEAPON_AXE_TRAINING]
[NAME:training axe:training axes]
[SIZE:600]
[SKILL:AXE]
[TWO_HANDED:37500]
[MINIMUM_SIZE:32500]
[MATERIAL_SIZE:1]
[ATTACK:BLUNT:300:50:strike:strikes:NO_SUB:1250]
[ATTACK:BLUNT:100:100:strike:strikes:handle:1000]
[TRAINING]

[ITEM_WEAPON:ITEM_WEAPON_HAMMER_TRAINING]
[NAME:training hammer:training hammers]
[SIZE:500]
[SKILL:HAMMER]
[TWO_HANDED:37500]
[MINIMUM_SIZE:32500]
[MATERIAL_SIZE:1]
[ATTACK:BLUNT:10000:200:strike:strikes:NO_SUB:1250]
[ATTACK:BLUNT:100:100:strike:strikes:handle:1000]
[TRAINING]

[ITEM_WEAPON:ITEM_WEAPON_MACE_TRAINING]
[NAME:training mace:training maces]
[SIZE:450]
[SKILL:MACE]
[TWO_HANDED:37500]
[MINIMUM_SIZE:32500]
[MATERIAL_SIZE:1]
[ATTACK:BLUNT:10000:200:strike:strikes:NO_SUB:1250]
[ATTACK:BLUNT:100:100:strike:strikes:handle:1000]
[TRAINING]

[ITEM_WEAPON:ITEM_WEAPON_SWORD_SHORT_TRAINING]
[NAME:training sword:training swords]
[SIZE:300]
[SKILL:SWORD]
[TWO_HANDED:37500]
[MINIMUM_SIZE:32500]
[MATERIAL_SIZE:1]
[ATTACK:BLUNT:2000:40:strike:strikes:NO_SUB:1250]
[ATTACK:BLUNT:100:100:strike:strikes:handle:1000]
[TRAINING]

[ITEM_WEAPON:ITEM_WEAPON_SPEAR_TRAINING]
[NAME:training spear:training spears]
[SIZE:500]
[SKILL:SPEAR]
[TWO_HANDED:47500]
[MINIMUM_SIZE:5000]
[MATERIAL_SIZE:1]
[ATTACK:BLUNT:50:60:stab:stabs:NO_SUB:1000]
[ATTACK:BLUNT:10000:160:bash:bashes:shaft:1250]
[TRAINING]

[ITEM_WEAPON:ITEM_WEAPON_KNIFE_TRAINING]
[NAME:training knife:training knives]
[SIZE:200]
[SKILL:DAGGER]
[TWO_HANDED:27500]
[MINIMUM_SIZE:5000]
[MATERIAL_SIZE:1]
[ATTACK:BLUNT:700:150:strike:strikes:NO_SUB:1150]
[ATTACK:BLUNT:40:60:strike:strikes:handle:1000]
[TRAINING]