creature_large_tundra_great

[OBJECT:CREATURE]

===========================================================================================================
Dark Ages: War & Mythos: 0.42.03 | r1 | GM-X| DFDarkAge.com | AdventRPG.com
===========================================================================================================
Great Tundra Animals by GM-X. | dfdarkage.com
===========================================================================================================

[CREATURE:GREAT_MUSKOX]
	[DESCRIPTION:A large hooved animal with curved horns and a thick brown coat.  It is known for its strong odor.]
	[NAME:great muskox:great muskoxen:great muskox]
	[CASTE_NAME:great muskox:great muskoxen:great muskox]
	[CHILD:1][GENERAL_CHILD_NAME:muskox calf:muskox calves]
	[CREATURE_TILE:'O'][COLOR:6:0:0]
	[PREFSTRING:strength]
=========================================================================================================
	[GENERAL_MATERIAL_FORCE_MULTIPLIER:1:2]
	[APPLY_CREATURE_VARIATION:ZFUR]
	[TRAINABLE][PETVALUE:40][PET_EXOTIC]
========================================================================================================
	[USE_MATERIAL_TEMPLATE:BONE:BONE_STRONG_TEMPLATE]
	[USE_MATERIAL_TEMPLATE:MUSCLE:TOUGHMUSCLE_TEMPLATE]
	[SELECT_TISSUE_LAYER:ALL]
		[TL_HEALING_RATE:200]
========================================================================================================
	[LARGE_ROAMING]
	[BIOME:TUNDRA]
	[BIOME:GLACIER]	
	[BIOME:ANY_GRASSLAND]
	[POPULATION_NUMBER:10:20]
	[CLUSTER_NUMBER:3:9]
	[BENIGN][MEANDERER]
	[STANDARD_GRAZER]
	[VISION_ARC:50:310]
	[WAGON_PULLER]
	[PACK_ANIMAL]
	[BODY:QUADRUPED_NECK_HOOF:TAIL:2EYES:2EARS:NOSE:2LUNGS:HEART:GUTS:ORGANS:THROAT:NECK:SPINE:BRAIN:SKULL:MOUTH:TONGUE:GENERIC_TEETH:RIBCAGE]
	[NATURAL]
	[BODY_DETAIL_PLAN:STANDARD_MATERIALS]
		[USE_MATERIAL_TEMPLATE:HOOF:HOOF_TEMPLATE]
	[BODY_DETAIL_PLAN:STANDARD_TISSUES]
		[SELECT_TISSUE:HAIR]
			[INSULATION:200]
		[USE_TISSUE_TEMPLATE:HOOF:HOOF_TEMPLATE]
	[BODY_DETAIL_PLAN:VERTEBRATE_TISSUE_LAYERS:SKIN:FAT:MUSCLE:BONE:CARTILAGE]
	[BODY_DETAIL_PLAN:BODY_HAIR_TISSUE_LAYERS:HAIR]
	[SELECT_TISSUE_LAYER:HEART:BY_CATEGORY:HEART]
	 [PLUS_TISSUE_LAYER:SKIN:BY_CATEGORY:THROAT]
		[TL_MAJOR_ARTERIES]
	[BODY_DETAIL_PLAN:STANDARD_HEAD_POSITIONS]
	[BODY_DETAIL_PLAN:HUMANOID_RIBCAGE_POSITIONS]
	[USE_MATERIAL_TEMPLATE:SINEW:SINEW_TEMPLATE]
	[TENDONS:LOCAL_CREATURE_MAT:SINEW:200]
	[LIGAMENTS:LOCAL_CREATURE_MAT:SINEW:200]
	[HAS_NERVES]
	[USE_MATERIAL_TEMPLATE:BLOOD:BLOOD_TEMPLATE]
	[BLOOD:LOCAL_CREATURE_MAT:BLOOD:LIQUID]
	[CREATURE_CLASS:GENERAL_POISON]
	[GETS_WOUND_INFECTIONS]
	[GETS_INFECTIONS_FROM_ROT]
	[USE_MATERIAL_TEMPLATE:PUS:PUS_TEMPLATE]
	[PUS:LOCAL_CREATURE_MAT:PUS:LIQUID]
	[BODY_SIZE:0:0:30000]
	[BODY_SIZE:1:0:120000]
	[BODY_SIZE:2:0:285000]
	[BODY_APPEARANCE_MODIFIER:LENGTH:90:95:98:100:102:105:150]
	[BODY_APPEARANCE_MODIFIER:HEIGHT:90:95:98:100:102:105:150]
	[BODY_APPEARANCE_MODIFIER:BROADNESS:90:95:98:100:102:105:150]
	[MAXAGE:15:30]
	[ATTACK:KICK:BODYPART:BY_CATEGORY:HOOF_FRONT]
		[ATTACK_SKILL:STANCE_STRIKE]
		[ATTACK_VERB:kick:kicks]
		[ATTACK_CONTACT_PERC:100]
		[ATTACK_PREPARE_AND_RECOVER:4:4]
		[ATTACK_PRIORITY:MAIN]
		[ATTACK_FLAG_WITH]
		[ATTACK_FLAG_BAD_MULTIATTACK]
	[ATTACK:KICK:BODYPART:BY_CATEGORY:HOOF_REAR]
		[ATTACK_SKILL:STANCE_STRIKE]
		[ATTACK_VERB:kick:kicks]
		[ATTACK_CONTACT_PERC:100]
		[ATTACK_PREPARE_AND_RECOVER:4:4]
		[ATTACK_PRIORITY:MAIN]
		[ATTACK_FLAG_WITH]
		[ATTACK_FLAG_BAD_MULTIATTACK]
	[ATTACK:BITE:CHILD_BODYPART_GROUP:BY_CATEGORY:HEAD:BY_CATEGORY:TOOTH]
		[ATTACK_SKILL:BITE]
		[ATTACK_VERB:bite:bites]
		[ATTACK_CONTACT_PERC:100]
		[ATTACK_PENETRATION_PERC:100]
		[ATTACK_FLAG_EDGE]
		[ATTACK_PREPARE_AND_RECOVER:3:3]
		[ATTACK_PRIORITY:SECOND]
		[ATTACK_FLAG_CANLATCH]
	[CHILD:1]
	[DIURNAL]
	[HOMEOTHERM:10067]
	[APPLY_CREATURE_VARIATION:STANDARD_QUADRUPED_GAITS:900:438:292:146:1900:2900] 60 kph
	[APPLY_CREATURE_VARIATION:STANDARD_SWIMMING_GAITS:2990:2257:1525:731:4300:6100] 12 kph
	[APPLY_CREATURE_VARIATION:STANDARD_CRAWLING_GAITS:2990:2257:1525:731:4300:6100] 12 kph
	[SWIMS_INNATE]
	[TRADE_CAPACITY:2000]
	[MUNDANE]
	[CASTE:FEMALE]
		[FEMALE]
		[MULTIPLE_LITTER_RARE]
	[CASTE:MALE]
		[MALE]
		[SET_BP_GROUP:BY_TYPE:LOWERBODY][BP_ADD_TYPE:GELDABLE]		
	[SELECT_CASTE:ALL]
		[SET_TL_GROUP:BY_CATEGORY:ALL:HAIR]
			[TL_COLOR_MODIFIER:BROWN:1]
				[TLCM_NOUN:hair:SINGULAR]
		[SET_TL_GROUP:BY_CATEGORY:ALL:SKIN]
	[TL_COLOR_MODIFIER:BROWN:1:BURNT_UMBER:1:CINNAMON:1:COPPER:1:DARK_BROWN:1:DARK_PEACH:1:DARK_TAN:1:ECRU:1:PALE_BROWN:1:PALE_CHESTNUT:1:PALE_PINK:1:PEACH:1:PINK:1:RAW_UMBER:1:SEPIA:1:TAN:1:TAUPE_PALE:1:TAUPE_SANDY:1]
				[TLCM_NOUN:skin:SINGULAR]
		[SET_TL_GROUP:BY_CATEGORY:EYE:EYE]
			[TL_COLOR_MODIFIER:BLACK:1]
				[TLCM_NOUN:eyes:PLURAL]
	[SELECT_MATERIAL:ALL]
		[MULTIPLY_VALUE:2]

[CREATURE:GREAT_ELK]
	[DESCRIPTION:A large hooved animal found roaming wild in temperate forests.  The males have long antlers.]
	[NAME:great elk:great elk:great elk]
	[CASTE_NAME:great elk:great elk:great elk]
	[CREATURE_TILE:'E'][COLOR:6:0:0]
	[TRAINABLE][PETVALUE:40][PET_EXOTIC]
	[VISION_ARC:50:310]
	[PREFSTRING:grace]
=========================================================================================================
	[GENERAL_MATERIAL_FORCE_MULTIPLIER:1:2]
	[APPLY_CREATURE_VARIATION:ZFUR]
	[STANDARD_GRAZER]
========================================================================================================
	[USE_MATERIAL_TEMPLATE:BONE:BONE_STRONG_TEMPLATE]
	[USE_MATERIAL_TEMPLATE:MUSCLE:TOUGHMUSCLE_TEMPLATE]
	[SELECT_TISSUE_LAYER:ALL]
		[TL_HEALING_RATE:100]
========================================================================================================
	[LARGE_ROAMING]
	[POPULATION_NUMBER:10:20]
	[CLUSTER_NUMBER:5:10]
	[GRASSTRAMPLE:0]
	[BIOME:TUNDRA]
	[BIOME:GLACIER]	
	[BIOME:ANY_GRASSLAND]
	[BENIGN][MEANDERER]
	[NATURAL]
	[CASTE:FEMALE]
		[FEMALE]
		[MULTIPLE_LITTER_RARE]
	[BODY:QUADRUPED_NECK_HOOF:TAIL:2EYES:2EARS:NOSE:2LUNGS:HEART:GUTS:ORGANS:THROAT:NECK:SPINE:BRAIN:SKULL:MOUTH:TONGUE:GENERIC_TEETH:RIBCAGE]
	[CASTE:MALE]
		[MALE]	
	[BODY:QUADRUPED_NECK_HOOF:TAIL:2EYES:2EARS:NOSE:2LUNGS:HEART:GUTS:ORGANS:THROAT:NECK:SPINE:BRAIN:SKULL:MOUTH:TONGUE:GENERIC_TEETH:2HEAD_ANTLER:RIBCAGE]
	[SELECT_CASTE:ALL]
	[BODY_DETAIL_PLAN:STANDARD_MATERIALS]
		[USE_MATERIAL_TEMPLATE:HOOF:HOOF_TEMPLATE]
		[USE_MATERIAL_TEMPLATE:HORN:HORN_TEMPLATE]
	[BODY_DETAIL_PLAN:STANDARD_TISSUES]
		[SELECT_TISSUE:HAIR]
			[INSULATION:200]
		[USE_TISSUE_TEMPLATE:HOOF:HOOF_TEMPLATE]
		[USE_TISSUE_TEMPLATE:HORN:HORN_TEMPLATE]
	[BODY_DETAIL_PLAN:VERTEBRATE_TISSUE_LAYERS:SKIN:FAT:MUSCLE:BONE:CARTILAGE]
	[BODY_DETAIL_PLAN:BODY_HAIR_TISSUE_LAYERS:HAIR]
	[SELECT_TISSUE_LAYER:HEART:BY_CATEGORY:HEART]
	 [PLUS_TISSUE_LAYER:SKIN:BY_CATEGORY:THROAT]
		[TL_MAJOR_ARTERIES]
	[BODY_DETAIL_PLAN:STANDARD_HEAD_POSITIONS]
	[BODY_DETAIL_PLAN:HUMANOID_RIBCAGE_POSITIONS]
	[USE_MATERIAL_TEMPLATE:SINEW:SINEW_TEMPLATE]
	[TENDONS:LOCAL_CREATURE_MAT:SINEW:200]
	[LIGAMENTS:LOCAL_CREATURE_MAT:SINEW:200]
	[HAS_NERVES]
	[USE_MATERIAL_TEMPLATE:BLOOD:BLOOD_TEMPLATE]
	[BLOOD:LOCAL_CREATURE_MAT:BLOOD:LIQUID]
	[CREATURE_CLASS:GENERAL_POISON]
	[GETS_WOUND_INFECTIONS]
	[GETS_INFECTIONS_FROM_ROT]
	[USE_MATERIAL_TEMPLATE:PUS:PUS_TEMPLATE]
	[PUS:LOCAL_CREATURE_MAT:PUS:LIQUID]
	[BODY_SIZE:0:0:30000]
	[BODY_SIZE:1:0:150000]
	[BODY_SIZE:2:0:300000]
	[BODY_APPEARANCE_MODIFIER:LENGTH:90:95:98:100:102:105:150]
	[BODY_APPEARANCE_MODIFIER:HEIGHT:90:95:98:100:102:105:150]
	[BODY_APPEARANCE_MODIFIER:BROADNESS:90:95:98:100:102:105:150]
	[MAXAGE:15:30]
	[ATTACK:KICK:BODYPART:BY_CATEGORY:HOOF_FRONT]
		[ATTACK_SKILL:STANCE_STRIKE]
		[ATTACK_VERB:kick:kicks]
		[ATTACK_CONTACT_PERC:100]
		[ATTACK_PREPARE_AND_RECOVER:4:4]
		[ATTACK_PRIORITY:MAIN]
		[ATTACK_FLAG_WITH]
		[ATTACK_FLAG_BAD_MULTIATTACK]
	[ATTACK:KICK:BODYPART:BY_CATEGORY:HOOF_REAR]
		[ATTACK_SKILL:STANCE_STRIKE]
		[ATTACK_VERB:kick:kicks]
		[ATTACK_CONTACT_PERC:100]
		[ATTACK_PREPARE_AND_RECOVER:4:4]
		[ATTACK_PRIORITY:MAIN]
		[ATTACK_FLAG_WITH]
		[ATTACK_FLAG_BAD_MULTIATTACK]
	[ATTACK:BITE:CHILD_BODYPART_GROUP:BY_CATEGORY:HEAD:BY_CATEGORY:TOOTH]
		[ATTACK_SKILL:BITE]
		[ATTACK_VERB:bite:bites]
		[ATTACK_CONTACT_PERC:100]
		[ATTACK_PENETRATION_PERC:100]
		[ATTACK_FLAG_EDGE]
		[ATTACK_PREPARE_AND_RECOVER:3:3]
		[ATTACK_PRIORITY:SECOND]
		[ATTACK_FLAG_CANLATCH]
	[CHILD:1][GENERAL_CHILD_NAME:elk fawn:elk fawns]
	[DIURNAL]
	[HOMEOTHERM:10067]
	[APPLY_CREATURE_VARIATION:STANDARD_QUADRUPED_GAITS:900:366:244:122:1900:2900] 72 kph
	[APPLY_CREATURE_VARIATION:STANDARD_SWIMMING_GAITS:2990:2257:1525:731:4300:6100] 12 kph
	[APPLY_CREATURE_VARIATION:STANDARD_CRAWLING_GAITS:2990:2257:1525:731:4300:6100] 12 kph
	[SWIMS_INNATE]
	[MUNDANE]
	[SET_TL_GROUP:BY_CATEGORY:ALL:HAIR]
		[TL_COLOR_MODIFIER:BROWN:1]
			[TLCM_NOUN:hair:SINGULAR]
	[SET_TL_GROUP:BY_CATEGORY:ALL:SKIN]
	[TL_COLOR_MODIFIER:BROWN:1:BURNT_UMBER:1:CINNAMON:1:COPPER:1:DARK_BROWN:1:DARK_PEACH:1:DARK_TAN:1:ECRU:1:PALE_BROWN:1:PALE_CHESTNUT:1:PALE_PINK:1:PEACH:1:PINK:1:RAW_UMBER:1:SEPIA:1:TAN:1:TAUPE_PALE:1:TAUPE_SANDY:1]
			[TLCM_NOUN:skin:SINGULAR]
	[SET_TL_GROUP:BY_CATEGORY:EYE:EYE]
		[TL_COLOR_MODIFIER:BLACK:1]
			[TLCM_NOUN:eyes:PLURAL]
	[SELECT_MATERIAL:ALL]
		[MULTIPLY_VALUE:3]

[CREATURE:GREAT_BEAR_POLAR]
	[DESCRIPTION:A huge predatory mammal covered in white hair. It hunts the shores along tundra and glaciers.]
	[NAME:great polar bear:great polar bears:great polar bear]
	[CASTE_NAME:great polar bear:great polar bears:great polar bear]
	[GENERAL_CHILD_NAME:great polar bear cub:great polar bear cubs]
	[CREATURE_TILE:'B'][COLOR:7:0:1]
	[NATURAL]
	[TRAINABLE][PETVALUE:95][PET_EXOTIC][MOUNT_EXOTIC]
	[LARGE_ROAMING]
	[POPULATION_NUMBER:8:16]
	[CLUSTER_NUMBER:1:3]
	[LARGE_PREDATOR]
	[FREQUENCY:100]
	[CURIOUSBEAST_EATER]
	[CURIOUSBEAST_GUZZLER]
	[MEANDERER]
	[BIOME:GLACIER]
	[BIOME:TUNDRA]
	[GRASSTRAMPLE:0]
	[BONECARN]
	[PREFSTRING:strength]
=========================================================================================================
	[GENERAL_MATERIAL_FORCE_MULTIPLIER:1:3]
========================================================================================================
	[USE_MATERIAL_TEMPLATE:BONE:BONE_STRONG_TEMPLATE]
	[USE_MATERIAL_TEMPLATE:MUSCLE:TOUGHMUSCLE_TEMPLATE]
	[SELECT_TISSUE_LAYER:ALL]
		[TL_HEALING_RATE:100]
========================================================================================================	
	[APPLY_CREATURE_VARIATION:ZFUR]
	[MAXAGE:50:65]
	[BODY_SIZE:50:0:500000]
	[PRONE_TO_RAGE:15]
=========================================================================================================
	[BODY:QUADRUPED_NECK:TAIL:2EYES:2EARS:NOSE:2LUNGS:HEART:GUTS:ORGANS:THROAT:NECK:SPINE:BRAIN:SKULL:5TOES_FQ_REG:5TOES_RQ_REG:MOUTH:TONGUE:GENERIC_TEETH_WITH_LARGE_EYE_TEETH:RIBCAGE]
	[BODYGLOSS:PAW]
	[BODY_DETAIL_PLAN:STANDARD_MATERIALS]
	[BODY_DETAIL_PLAN:STANDARD_TISSUES]
		[SELECT_TISSUE:HAIR]
			[INSULATION:200]
	[BODY_DETAIL_PLAN:VERTEBRATE_TISSUE_LAYERS:SKIN:FAT:MUSCLE:BONE:CARTILAGE]
	[BODY_DETAIL_PLAN:BODY_HAIR_TISSUE_LAYERS:HAIR]
	[USE_MATERIAL_TEMPLATE:NAIL:NAIL_TEMPLATE]
	[USE_TISSUE_TEMPLATE:NAIL:NAIL_TEMPLATE]
	[TISSUE_LAYER:BY_CATEGORY:TOE:NAIL:FRONT]
	[SELECT_TISSUE_LAYER:HEART:BY_CATEGORY:HEART]
	 [PLUS_TISSUE_LAYER:SKIN:BY_CATEGORY:THROAT]
		[TL_MAJOR_ARTERIES]
	[BODY_DETAIL_PLAN:STANDARD_HEAD_POSITIONS]
	[BODY_DETAIL_PLAN:HUMANOID_RIBCAGE_POSITIONS]
	[USE_MATERIAL_TEMPLATE:SINEW:SINEW_TEMPLATE]
	[TENDONS:LOCAL_CREATURE_MAT:SINEW:200]
	[LIGAMENTS:LOCAL_CREATURE_MAT:SINEW:200]
	[HAS_NERVES]
	[USE_MATERIAL_TEMPLATE:BLOOD:BLOOD_TEMPLATE]
	[BLOOD:LOCAL_CREATURE_MAT:BLOOD:LIQUID]
	[CREATURE_CLASS:GENERAL_POISON]
	[GETS_WOUND_INFECTIONS]
	[GETS_INFECTIONS_FROM_ROT]
	[USE_MATERIAL_TEMPLATE:PUS:PUS_TEMPLATE]
	[PUS:LOCAL_CREATURE_MAT:PUS:LIQUID]
	[BODY_SIZE:0:0:40000]
	[BODY_SIZE:1:0:200000]
	[BODY_SIZE:2:0:400000]
	[BODY_APPEARANCE_MODIFIER:LENGTH:90:95:98:100:102:105:150]
	[BODY_APPEARANCE_MODIFIER:HEIGHT:90:95:98:100:102:105:150]
	[BODY_APPEARANCE_MODIFIER:BROADNESS:90:95:98:100:102:105:150]
	[ATTACK:BITE:CHILD_BODYPART_GROUP:BY_CATEGORY:HEAD:BY_CATEGORY:TOOTH]
		[ATTACK_SKILL:BITE]
		[ATTACK_VERB:bite:bites]
		[ATTACK_CONTACT_PERC:100]
		[ATTACK_PENETRATION_PERC:100]
		[ATTACK_FLAG_EDGE]
		[ATTACK_PREPARE_AND_RECOVER:3:3]
		[ATTACK_PRIORITY:MAIN]
		[ATTACK_FLAG_CANLATCH]
	[ATTACK:SCRATCH:CHILD_TISSUE_LAYER_GROUP:BY_TYPE:STANCE:BY_CATEGORY:ALL:NAIL]
		[ATTACK_SKILL:GRASP_STRIKE]
		[ATTACK_VERB:scratch:scratches]
		[ATTACK_CONTACT_PERC:100]
		[ATTACK_PENETRATION_PERC:100]
		[ATTACK_FLAG_EDGE]
		[ATTACK_PREPARE_AND_RECOVER:3:3]
		[ATTACK_PRIORITY:SECOND]
	[CHILD:1]
	[DIURNAL]
	[HOMEOTHERM:10067]
	[APPLY_CREATURE_VARIATION:STANDARD_QUADRUPED_GAITS:900:657:438:219:1900:2900] 40 kph
	[APPLY_CREATURE_VARIATION:STANDARD_SWIMMING_GAITS:2990:2257:1525:731:4300:6100] 12 kph
	[APPLY_CREATURE_VARIATION:STANDARD_CRAWLING_GAITS:2990:2257:1525:731:4300:6100] 12 kph
	[SWIMS_INNATE]
	[MUNDANE]
	[CASTE:FEMALE]
		[FEMALE]
	[CASTE:MALE]
		[MALE]
		[SET_BP_GROUP:BY_TYPE:LOWERBODY][BP_ADD_TYPE:GELDABLE]		
	[SELECT_CASTE:ALL]
		[SET_TL_GROUP:BY_CATEGORY:ALL:HAIR]
			[TL_COLOR_MODIFIER:WHITE:1]
				[TLCM_NOUN:hair:SINGULAR]
		[SET_TL_GROUP:BY_CATEGORY:ALL:SKIN]
	[TL_COLOR_MODIFIER:BROWN:1:BURNT_UMBER:1:CINNAMON:1:COPPER:1:DARK_BROWN:1:DARK_PEACH:1:DARK_TAN:1:ECRU:1:PALE_BROWN:1:PALE_CHESTNUT:1:PALE_PINK:1:PEACH:1:PINK:1:RAW_UMBER:1:SEPIA:1:TAN:1:TAUPE_PALE:1:TAUPE_SANDY:1]
				[TLCM_NOUN:skin:SINGULAR]
		[SET_TL_GROUP:BY_CATEGORY:EYE:EYE]
			[TL_COLOR_MODIFIER:BLACK:1]
				[TLCM_NOUN:eyes:PLURAL]
	[SELECT_MATERIAL:ALL]
		[MULTIPLY_VALUE:4]