creature_savage_good

[OBJECT:CREATURE]

=========================================================================================================================

Anubite
Badger man
Capybara man
Moose man
Panda man
Penguin man
Platypus man
Tigerman

Firebird
Giant swan

=========================================================================================================================

[CREATURE:ANUBITE]
	[DESCRIPTION:(Size 90, humanoid) A large-sized creature with a head of a jackal, capable of great speed.]
	[NAME:anubite:anubites:anubite]
	[CASTE_NAME:anubite:anubites:anubite]
	[CREATURE_TILE:'A']
	[COLOR:0:0:1]
	[INTELLIGENT]
	[CANOPENDOORS]

	[CURIOUSBEAST_EATER]
	[CURIOUSBEAST_ITEM] --for fun.

	[LIKES_FIGHTING]
	[NOFEAR][PRONE_TO_RAGE:3]

	[NOCTURNAL][CREPUSCULAR]
	
	[SAVAGE][GOOD]

	[BIOME:ANY_DESERT]

	[LARGE_ROAMING][LARGE_PREDATOR]
	[FREQUENCY:15]
	
	[POPULATION_NUMBER:20:40]
	[CLUSTER_NUMBER:2:5]

	[SPEED:800]
	[PREFSTRING:speed]
	[PHYS_ATT_RANGE:STRENGTH:1500:1700:1900:2100:2400:2600:2800]
	[PHYS_ATT_RANGE:AGILITY:2500:2700:2900:3100:3400:3600:3800]
	[PHYS_ATT_RANGE:TOUGHNESS:1500:1700:1900:2100:2400:2600:2800]
	[PHYS_ATT_RANGE:ENDURANCE:2500:2700:2900:3100:3400:3600:3800]

	[NATURAL_SKILL:BITE:3]
	[NATURAL_SKILL:DODGING:6]
	[NATURAL_SKILL:WRESTLING:5]
	[NATURAL_SKILL:STANCE_STRIKE:2]
	[NATURAL_SKILL:GRASP_STRIKE:4]
	[NATURAL_SKILL:SITUATIONAL_AWARENESS:4]
	[NATURAL_SKILL:MELEE_COMBAT:3]

	[CASTE:FEMALE]
		[FEMALE]
		[BODY:HUMANOID:2EYES:2EARS:NOSE:2LUNGS:HEART:GUTS:ORGANS:HUMANOID_JOINTS:THROAT:NECK:SPINE:BRAIN:SKULL:5FINGERS:5TOES:MOUTH:TEETH:RIBCAGE:FEMALEGEN]
	[CASTE:MALE]
		[MALE]
		[BODY:HUMANOID:2EYES:2EARS:NOSE:2LUNGS:HEART:GUTS:ORGANS:HUMANOID_JOINTS:THROAT:NECK:SPINE:BRAIN:SKULL:5FINGERS:5TOES:MOUTH:TEETH:RIBCAGE:MALEGEN]
	[SELECT_CASTE:ALL]
	[BODY_DETAIL_PLAN:THINSKIN_MATERIALS] --high speed, thin skin.
	[REMOVE_TISSUE:HAIR]
	[BODY_DETAIL_PLAN:STANDARD_TISSUES]
	[REMOVE_TISSUE:HAIR]
	[BODY_DETAIL_PLAN:VERTEBRATE_TISSUE_LAYERS:SKIN:FAT:MUSCLE:BONE:CARTILAGE]
	[USE_MATERIAL_TEMPLATE:NAIL:NAIL_TEMPLATE]
	[USE_TISSUE_TEMPLATE:NAIL:NAIL_TEMPLATE]
	[TISSUE_LAYER:BY_CATEGORY:FINGER:NAIL:FRONT]
	[TISSUE_LAYER:BY_CATEGORY:TOE:NAIL:FRONT]
	[SELECT_TISSUE_LAYER:HEART:BY_CATEGORY:HEART]
	[PLUS_TISSUE_LAYER:SKIN:BY_CATEGORY:THROAT]
	[TL_MAJOR_ARTERIES]
	[BODY_DETAIL_PLAN:STANDARD_HEAD_POSITIONS]
	[BODY_DETAIL_PLAN:HUMANOID_HEAD_POSITIONS]
	[BODY_DETAIL_PLAN:HUMANOID_RIBCAGE_POSITIONS]
	[BODY_DETAIL_PLAN:HUMANOID_RELSIZES]
	[USE_MATERIAL_TEMPLATE:SINEW:SINEW_TEMPLATE]
	[TENDONS:LOCAL_CREATURE_MAT:SINEW:200]
	[LIGAMENTS:LOCAL_CREATURE_MAT:SINEW:200]
	[HAS_NERVES]
	[USE_MATERIAL_TEMPLATE:BLOOD:BLOOD_TEMPLATE]
	[BLOOD:LOCAL_CREATURE_MAT:BLOOD:LIQUID]
	[CREATURE_CLASS:GENERAL_POISON]
	[GETS_WOUND_INFECTIONS]
	[GETS_INFECTIONS_FROM_ROT]
	[USE_MATERIAL_TEMPLATE:PUS:PUS_TEMPLATE]
	[PUS:LOCAL_CREATURE_MAT:PUS:LIQUID]
	[BODY_SIZE:0:0:90000]
	[BODY_APPEARANCE_MODIFIER:HEIGHT:75:95:98:100:102:105:125]
	[APP_MOD_IMPORTANCE:500]
	[BODY_APPEARANCE_MODIFIER:BROADNESS:75:95:98:100:102:105:125]
	[APP_MOD_IMPORTANCE:500]
	[SET_BP_GROUP:BY_CATEGORY:EYE]
	[BP_APPEARANCE_MODIFIER:CLOSE_SET:0:70:90:100:110:130:200]
	[APP_MOD_NOUN:eyes:PLURAL]
	[BP_APPEARANCE_MODIFIER:DEEP_SET:0:70:90:100:110:130:200]
	[APP_MOD_NOUN:eyes:PLURAL]
	[BP_APPEARANCE_MODIFIER:ROUND_VS_NARROW:0:70:90:100:110:130:200]
	[APP_MOD_NOUN:eyes:PLURAL]
	[BP_APPEARANCE_MODIFIER:LARGE_IRIS:25:70:90:100:110:130:200]
	[APP_MOD_NOUN:eyes:PLURAL]
	[SET_BP_GROUP:BY_CATEGORY:NOSE]
	[BP_APPEARANCE_MODIFIER:BROADNESS:50:70:90:100:110:130:200]
	[BP_APPEARANCE_MODIFIER:LENGTH:75:80:90:100:110:130:200]
	[BP_APPEARANCE_MODIFIER:UPTURNED:0:70:90:100:110:130:200]
	[BP_APPEARANCE_MODIFIER:CONVEX:0:70:90:100:110:130:200]
	[APP_MOD_NOUN:nose bridge:SINGULAR]
	[SET_BP_GROUP:BY_CATEGORY:EAR]
	[BP_APPEARANCE_MODIFIER:SPLAYED_OUT:0:70:90:100:110:130:200]
	[APP_MOD_NOUN:ears:PLURAL]
	[BP_APPEARANCE_MODIFIER:HANGING_LOBES:0:70:90:100:110:130:200]
	[APP_MOD_NOUN:ears:PLURAL]
	[BP_APPEARANCE_MODIFIER:BROADNESS:90:95:98:100:102:105:110]
	[APP_MOD_IMPORTANCE:700]
	[APP_MOD_NOUN:ears:PLURAL]
	[BP_APPEARANCE_MODIFIER:HEIGHT:90:95:98:100:102:105:110]
	[APP_MOD_IMPORTANCE:700]
	[APP_MOD_NOUN:ears:PLURAL]
	[SET_BP_GROUP:BY_CATEGORY:TOOTH]
	[BP_APPEARANCE_MODIFIER:GAPS:0:70:90:100:110:130:200]
	[APP_MOD_NOUN:teeth:PLURAL]
	[SET_BP_GROUP:BY_CATEGORY:SKULL]
	[BP_APPEARANCE_MODIFIER:HIGH_CHEEKBONES:0:70:90:100:110:130:200]
	[BP_APPEARANCE_MODIFIER:BROAD_CHIN:0:70:90:100:110:130:200]
	[BP_APPEARANCE_MODIFIER:JUTTING_CHIN:0:70:90:100:110:130:200]
	[BP_APPEARANCE_MODIFIER:SQUARE_CHIN:0:70:90:100:110:130:200]
	[SET_BP_GROUP:BY_CATEGORY:THROAT]
	[BP_APPEARANCE_MODIFIER:DEEP_VOICE:0:70:90:100:110:130:200]
	[BP_APPEARANCE_MODIFIER:RASPY_VOICE:0:70:90:100:110:130:200]
	[SET_BP_GROUP:BY_CATEGORY:HEAD]
	[BP_APPEARANCE_MODIFIER:BROADNESS:90:95:98:100:102:105:110]
	[APP_MOD_IMPORTANCE:700]
	[BP_APPEARANCE_MODIFIER:HEIGHT:90:95:98:100:102:105:110]
	[APP_MOD_IMPORTANCE:700]
	[MAXAGE:600:1200]
	[ATTACK:PUNCH:BODYPART:BY_TYPE:GRASP]
		[ATTACK_SKILL:GRASP_STRIKE]
		[ATTACK_VERB:claw:claws]
		[ATTACK_CONTACT_PERC:200]
		[ATTACK_PENETRATION_PERC:250]
		[ATTACK_FLAG_WITH]
		[ATTACK_FLAG_EDGE]
		[ATTACK_PRIORITY:MAIN]
	[ATTACK:KICK:BODYPART:BY_TYPE:STANCE]
		[ATTACK_SKILL:STANCE_STRIKE]
		[ATTACK_VERB:kick:kicks]
		[ATTACK_CONTACT_PERC:100]
		[ATTACK_FLAG_WITH]
		[ATTACK_PRIORITY:SECOND]
	[ATTACK:SCRATCH:CHILD_TISSUE_LAYER_GROUP:BY_TYPE:GRASP:BY_CATEGORY:FINGER:NAIL]
		[ATTACK_SKILL:GRASP_STRIKE]
		[ATTACK_VERB:scratch:scratches]
		[ATTACK_CONTACT_PERC:100]
		[ATTACK_PENETRATION_PERC:100]
		[ATTACK_FLAG_EDGE]
		[ATTACK_PRIORITY:SECOND]
	[ATTACK:BITE:CHILD_BODYPART_GROUP:BY_CATEGORY:HEAD:BY_CATEGORY:TOOTH]
		[ATTACK_SKILL:BITE]
		[ATTACK_VERB:bite:bites]
		[ATTACK_CONTACT_PERC:100]
		[ATTACK_PENETRATION_PERC:100]
		[ATTACK_FLAG_EDGE]
		[ATTACK_PRIORITY:SECOND]
		[ATTACK_FLAG_CANLATCH]
	[CHILD:1]
	[EQUIPS]

		[PROFESSION_NAME:LASHER:halberdier:halberdiers]
		[PROFESSION_NAME:MASTER_LASHER:elite halberdier:elite halberdiers]

	[HOMEOTHERM:10067]
	[SWIMS_LEARNED]
	[SWIM_SPEED:2500]
	[MANNERISM_FINGERS:finger:fingers]
	[MANNERISM_NOSE:nose]
	[MANNERISM_EAR:ear]
	[MANNERISM_HEAD:head]
	[MANNERISM_EYES:eyes]
	[MANNERISM_MOUTH:mouth]
	[MANNERISM_HAIR:hair]
	[MANNERISM_KNUCKLES:knuckles]
	[MANNERISM_LIPS:lips]
	[MANNERISM_CHEEK:cheek]
	[MANNERISM_NAILS:nails]
	[MANNERISM_FEET:feet]
	[MANNERISM_ARMS:arms]
	[MANNERISM_HANDS:hands]
	[MANNERISM_TONGUE:tongue]
	[MANNERISM_LEG:leg]
	[MANNERISM_LAUGH]
	[MANNERISM_SMILE]
	[MANNERISM_WALK]
	[MANNERISM_SIT]
	[MANNERISM_BREATH]
	[MANNERISM_POSTURE]
	[MANNERISM_STRETCH]
	[MANNERISM_EYELIDS]
	[SELECT_CASTE:ALL]
		[SET_TL_GROUP:BY_CATEGORY:ALL:SKIN]
		[TL_COLOR_MODIFIER:BLACK:1]
		[TLCM_NOUN:skin:SINGULAR]
		[TISSUE_LAYER_APPEARANCE_MODIFIER:WRINKLY:0:0:0:0:0:0:0]
		[APP_MOD_RATE:1:YEARLY:0:100:30:0:NO_END]
		[APP_MOD_NOUN:skin:SINGULAR]
	[SET_TL_GROUP:BY_CATEGORY:EYE:EYE]
		[TL_COLOR_MODIFIER:IRIS_EYE_AMBER:1:IRIS_EYE_AQUA:1:IRIS_EYE_AQUAMARINE:1:IRIS_EYE_ASH_GRAY:1:IRIS_EYE_AUBURN:1:IRIS_EYE_AZURE:1:IRIS_EYE_BLUE:1:IRIS_EYE_BRASS:1:IRIS_EYE_BRONZE:1:IRIS_EYE_BROWN:1:IRIS_EYE_CERULEAN:1:IRIS_EYE_CHESTNUT:1:IRIS_EYE_CHOCOLATE:1:IRIS_EYE_CINNAMON:1:IRIS_EYE_COPPER:1:IRIS_EYE_DARK_BLUE:1:IRIS_EYE_DARK_BROWN:1:IRIS_EYE_DARK_CHESTNUT:1:IRIS_EYE_DARK_GREEN:1:IRIS_EYE_DARK_OLIVE:1:IRIS_EYE_DARK_TAN:1:IRIS_EYE_ECRU:1:IRIS_EYE_EMERALD:1:IRIS_EYE_FERN_GREEN:1:IRIS_EYE_GRAY:1:IRIS_EYE_GREEN:1:IRIS_EYE_JADE:1:IRIS_EYE_LIGHT_BLUE:1:IRIS_EYE_LIGHT_BROWN:1:IRIS_EYE_MAHOGANY:1:IRIS_EYE_MIDNIGHT_BLUE:1:IRIS_EYE_OCHRE:1:IRIS_EYE_OLIVE:1:IRIS_EYE_PALE_BLUE:1:IRIS_EYE_PALE_BROWN:1:IRIS_EYE_PALE_CHESTNUT:1:IRIS_EYE_PERIWINKLE:1:IRIS_EYE_PINE_GREEN:1:IRIS_EYE_RAW_UMBER:1:IRIS_EYE_RUSSET:1:IRIS_EYE_SEA_GREEN:1:IRIS_EYE_SEPIA:1:IRIS_EYE_SKY_BLUE:1:IRIS_EYE_SLATE_GRAY:1:IRIS_EYE_SPRING_GREEN:1:IRIS_EYE_TAN:1:IRIS_EYE_TAUPE_DARK:1:IRIS_EYE_TAUPE_GRAY:1:IRIS_EYE_TAUPE_MEDIUM:1:IRIS_EYE_TAUPE_PALE:1:IRIS_EYE_TAUPE_SANDY:1:IRIS_EYE_TEAL:1:IRIS_EYE_TURQUOISE:1]
		[TLCM_NOUN:eyes:PLURAL]

[CREATURE:BADGER_MAN]
	[COPY_TAGS_FROM:BADGER]
	[APPLY_CREATURE_VARIATION:ANIMAL_PERSON]
	[CV_REMOVE_TAG:MUNDANE]
	[CV_REMOVE_TAG:NATURAL]
	[CV_REMOVE_TAG:PET]
	[APPLY_CURRENT_CREATURE_VARIATION]
	[AT_PEACE_WITH_WILDLIFE]

	[ALL_ACTIVE]
	
	[SAVAGE][GOOD]
	
	[LARGE_ROAMING][LARGE_PREDATOR]
	[FREQUENCY:15]
	
	[POPULATION_NUMBER:30:50]
	[CLUSTER_NUMBER:5:10]

	[BODY_SIZE:5:0:60000]
	
	[GO_TO_TAG:TISSUE_LAYER:BY_CATEGORY:TOE:NAIL:FRONT]
	[TISSUE_LAYER:BY_CATEGORY:FINGER:NAIL:FRONT]
	[GO_TO_TAG:ATTACK:SCRATCH:CHILD_TISSUE_LAYER_GROUP:BY_TYPE:STANCE:BY_CATEGORY:ALL:NAIL]
	[ATTACK:PUNCH:BODYPART:BY_CATEGORY:HAND]
		[ATTACK_SKILL:GRASP_STRIKE]
		[ATTACK_VERB:punch:punches]
		[ATTACK_CONTACT_PERC:100]
		[ATTACK_PRIORITY:MAIN]
		[ATTACK_FLAG_WITH]
	[ATTACK:SCRATCH:CHILD_TISSUE_LAYER_GROUP:BY_TYPE:GRASP:BY_CATEGORY:ALL:NAIL]
		[ATTACK_SKILL:GRASP_STRIKE]
		[ATTACK_VERB:scratch:scratches]
		[ATTACK_CONTACT_PERC:100]
		[ATTACK_PENETRATION_PERC:100]
		[ATTACK_FLAG_EDGE]
		[ATTACK_PRIORITY:SECOND]
	[GO_TO_END]
	[SELECT_CASTE:MALE]
		[CASTE_NAME:badger man:badger men:badger man]
	[SELECT_CASTE:FEMALE]
		[CASTE_NAME:badger woman:badger women:badger woman]
	[GO_TO_START]
	[NAME:badger man:badger men:badger man]
	[DESCRIPTION:(Size 60, humanoid) A humanoid with the head and stripes of a badger.]
	[MAXAGE:60:80]
	[CREATURE_TILE:'B']
	[COLOR:7:0:1]
	[NATURAL_SKILL:BITE:4]
	[NATURAL_SKILL:DODGING:4]
	[NATURAL_SKILL:WRESTLING:3]
	[NATURAL_SKILL:STANCE_STRIKE:2]
	[NATURAL_SKILL:GRASP_STRIKE:4]
	[NATURAL_SKILL:SITUATIONAL_AWARENESS:6]

	[GO_TO_TAG:SET_TL_GROUP:BY_CATEGORY:LEG_FRONT:HAIR]
	[CV_REMOVE_TAG:SET_TL_GROUP:BY_CATEGORY:LEG_FRONT:HAIR]
	[CV_REMOVE_TAG:PLUS_TL_GROUP:BY_CATEGORY:LEG_REAR:HAIR]
	[CV_REMOVE_TAG:PLUS_TL_GROUP:BY_CATEGORY:FOOT_FRONT:HAIR]
	[CV_REMOVE_TAG:PLUS_TL_GROUP:BY_CATEGORY:FOOT_REAR:HAIR]
	[CV_ADD_TAG:SET_TL_GROUP:BY_CATEGORY:ARM_UPPER:HAIR]
	[CV_ADD_TAG:PLUS_TL_GROUP:BY_CATEGORY:ARM_LOWER:HAIR]
	[CV_ADD_TAG:PLUS_TL_GROUP:BY_CATEGORY:HAND:HAIR]
	[CV_ADD_TAG:PLUS_TL_GROUP:BY_CATEGORY:FINGER:HAIR]
	[CV_ADD_TAG:PLUS_TL_GROUP:BY_CATEGORY:LEG:HAIR]
	[CV_ADD_TAG:PLUS_TL_GROUP:BY_CATEGORY:FOOT:HAIR]
	[APPLY_CURRENT_CREATURE_VARIATION]

[CREATURE:CAPYBARA_MAN]
	[COPY_TAGS_FROM:CAPYBARA]
	[APPLY_CREATURE_VARIATION:ANIMAL_PERSON]
	[CV_REMOVE_TAG:MUNDANE]
	[CV_REMOVE_TAG:NATURAL]
	[CV_REMOVE_TAG:PET]
	[CV_REMOVE_TAG:GRAZER]
	[APPLY_CURRENT_CREATURE_VARIATION]
	[AT_PEACE_WITH_WILDLIFE]
	
	[ALL_ACTIVE]
	
	[SAVAGE][GOOD]
	
	[LARGE_ROAMING][LARGE_PREDATOR]
	[FREQUENCY:15]
	
	[POPULATION_NUMBER:30:50]
	[CLUSTER_NUMBER:5:10]
	
	[GO_TO_TAG:TISSUE_LAYER:BY_CATEGORY:TOE:NAIL:FRONT]
	[TISSUE_LAYER:BY_CATEGORY:FINGER:NAIL:FRONT]
	[GO_TO_TAG:ATTACK:SCRATCH:CHILD_TISSUE_LAYER_GROUP:BY_TYPE:STANCE:BY_CATEGORY:ALL:NAIL]
	[ATTACK:PUNCH:BODYPART:BY_CATEGORY:HAND]
		[ATTACK_SKILL:GRASP_STRIKE]
		[ATTACK_VERB:punch:punches]
		[ATTACK_CONTACT_PERC:100]
		[ATTACK_PRIORITY:MAIN]
		[ATTACK_FLAG_WITH]
	[ATTACK:SCRATCH:CHILD_TISSUE_LAYER_GROUP:BY_TYPE:GRASP:BY_CATEGORY:ALL:NAIL]
		[ATTACK_SKILL:GRASP_STRIKE]
		[ATTACK_VERB:scratch:scratches]
		[ATTACK_CONTACT_PERC:100]
		[ATTACK_PENETRATION_PERC:100]
		[ATTACK_FLAG_EDGE]
		[ATTACK_PRIORITY:SECOND]
	[GO_TO_END]
	[SELECT_CASTE:MALE]
		[CASTE_NAME:capybara man:capybara men:capybara man]
	[SELECT_CASTE:FEMALE]
		[CASTE_NAME:capybara woman:capybara women:capybara woman]
	[GO_TO_START]
	[NAME:capybara man:capybara men:capybara man]
	[DESCRIPTION:(Size 45, humanoid) A wild humanoid with the head of a capybara.  It is fond of swimming.]
	[POPULATION_NUMBER:30:50]
	[CLUSTER_NUMBER:5:10]
	[MAXAGE:60:80]
	[CREATURE_TILE:'C']
	[COLOR:7:0:1]
	[GRAZER:500]

[CREATURE:MOOSE_MAN]
	[COPY_TAGS_FROM:MOOSE]
	[APPLY_CREATURE_VARIATION:ANIMAL_PERSON]
	[CV_REMOVE_TAG:GRAZER]
	[CV_REMOVE_TAG:MUNDANE]
	[CV_REMOVE_TAG:PET]
	[CV_REMOVE_TAG:ATTACK]
	[CV_REMOVE_TAG:ATTACK_SKILL]
	[CV_REMOVE_TAG:ATTACK_VERB]
	[CV_REMOVE_TAG:ATTACK_CONTACT_PERC]
	[CV_REMOVE_TAG:ATTACK_PRIORITY]
	[CV_REMOVE_TAG:ATTACK_FLAG_WITH]
	[CV_REMOVE_TAG:ATTACK_PENETRATION_PERC]
	[CV_REMOVE_TAG:ATTACK_FLAG_EDGE]
	[CV_REMOVE_TAG:ATTACK_FLAG_CANLATCH]
	[APPLY_CURRENT_CREATURE_VARIATION]
	[AT_PEACE_WITH_WILDLIFE]
	[GO_TO_TAG:BODY_DETAIL_PLAN:BODY_HAIR_TISSUE_LAYERS:HAIR]
	[USE_MATERIAL_TEMPLATE:NAIL:NAIL_TEMPLATE]
	[USE_TISSUE_TEMPLATE:NAIL:NAIL_TEMPLATE]
	[TISSUE_LAYER:BY_CATEGORY:FINGER:NAIL:FRONT]
	[GO_TO_TAG:ATTACK:SCRATCH:CHILD_TISSUE_LAYER_GROUP:BY_TYPE:STANCE:BY_CATEGORY:ALL:NAIL]
	[ATTACK:PUNCH:BODYPART:BY_CATEGORY:HAND]
		[ATTACK_SKILL:GRASP_STRIKE]
		[ATTACK_VERB:punch:punches]
		[ATTACK_CONTACT_PERC:100]
		[ATTACK_PRIORITY:MAIN]
		[ATTACK_FLAG_WITH]
	[ATTACK:KICK:BODYPART:BY_CATEGORY:HOOF]
		[ATTACK_SKILL:STANCE_STRIKE]
		[ATTACK_VERB:kick:kicks]
		[ATTACK_CONTACT_PERC:100]
		[ATTACK_PRIORITY:MAIN]
		[ATTACK_FLAG_WITH]
	[ATTACK:SCRATCH:CHILD_TISSUE_LAYER_GROUP:BY_TYPE:GRASP:BY_CATEGORY:ALL:NAIL]
		[ATTACK_SKILL:GRASP_STRIKE]
		[ATTACK_VERB:scratch:scratches]
		[ATTACK_CONTACT_PERC:100]
		[ATTACK_PENETRATION_PERC:100]
		[ATTACK_FLAG_EDGE]
		[ATTACK_PRIORITY:SECOND]
	[ATTACK:BITE:CHILD_BODYPART_GROUP:BY_CATEGORY:HEAD:BY_CATEGORY:TOOTH]
		[ATTACK_SKILL:BITE]
		[ATTACK_VERB:bite:bites]
		[ATTACK_CONTACT_PERC:100]
		[ATTACK_PENETRATION_PERC:100]
		[ATTACK_FLAG_EDGE]
		[ATTACK_PRIORITY:SECOND]
		[ATTACK_FLAG_CANLATCH]
	[NATURAL_SKILL:BITE:3]
	[NATURAL_SKILL:DODGING:3]
	[NATURAL_SKILL:WRESTLING:3]
	[NATURAL_SKILL:STANCE_STRIKE:4]
	[NATURAL_SKILL:GRASP_STRIKE:3]
	[NATURAL_SKILL:SITUATIONAL_AWARENESS:4]

	[GO_TO_END]
	[SELECT_CASTE:MALE]
		[CASTE_NAME:moose man:moose men:moose man]
		[GRAZER:300]
	[SELECT_CASTE:FEMALE]
		[CASTE_NAME:moose woman:moose women:moose woman]
		[GRAZER:200]
	[GO_TO_START]
	[NAME:moose man:moose men:moose man]
	[DESCRIPTION:(Size 315-525, humanoid) A humanoid with the head and antlers of a moose.]

	[SAVAGE][GOOD]
	
	[POPULATION_NUMBER:8:12]
	[CLUSTER_NUMBER:5:10]

	[MAXAGE:60:80]
	[CREATURE_TILE:'M']
	[COLOR:7:0:1]
	[LIKES_FIGHTING][PRONE_TO_RAGE:2][NOFEAR] --xxtrying this, they were quite cowards.

[CREATURE:PANDA_MAN]
	[COPY_TAGS_FROM:PANDA]
	[APPLY_CREATURE_VARIATION:ANIMAL_PERSON]
	[CV_REMOVE_TAG:GRAZER]
	[CV_REMOVE_TAG:MUNDANE]
	[CV_REMOVE_TAG:NATURAL]
	[CV_REMOVE_TAG:PET]
	[CV_CONVERT_TAG]
		[CVCT_MASTER:TLCM_NOUN]
		[CVCT_TARGET:legs]
		[CVCT_REPLACEMENT:arms and legs]
	[APPLY_CURRENT_CREATURE_VARIATION]
	[AT_PEACE_WITH_WILDLIFE]

	[ALL_ACTIVE]
	
	[SAVAGE][GOOD]

	[LARGE_ROAMING][LARGE_PREDATOR]
	[FREQUENCY:15]
	
	[POPULATION_NUMBER:30:50]
	[CLUSTER_NUMBER:5:10]	

	[GO_TO_TAG:SET_TL_GROUP:BY_CATEGORY:LEG_FRONT:HAIR]
	[CV_REMOVE_TAG:SET_TL_GROUP:BY_CATEGORY:LEG_FRONT:HAIR]
	[CV_REMOVE_TAG:PLUS_TL_GROUP:BY_CATEGORY:LEG_REAR:HAIR]
	[CV_REMOVE_TAG:PLUS_TL_GROUP:BY_CATEGORY:FOOT_FRONT:HAIR]
	[CV_REMOVE_TAG:PLUS_TL_GROUP:BY_CATEGORY:FOOT_REAR:HAIR]
	[CV_ADD_TAG:SET_TL_GROUP:BY_CATEGORY:ARM_UPPER:HAIR]
	[CV_ADD_TAG:PLUS_TL_GROUP:BY_CATEGORY:ARM_LOWER:HAIR]
	[CV_ADD_TAG:PLUS_TL_GROUP:BY_CATEGORY:HAND:HAIR]
	[CV_ADD_TAG:PLUS_TL_GROUP:BY_CATEGORY:FINGER:HAIR]
	[CV_ADD_TAG:PLUS_TL_GROUP:BY_CATEGORY:LEG:HAIR]
	[CV_ADD_TAG:PLUS_TL_GROUP:BY_CATEGORY:FOOT:HAIR]
	[APPLY_CURRENT_CREATURE_VARIATION]
	[GO_TO_TAG:TISSUE_LAYER:BY_CATEGORY:TOE:NAIL:FRONT]
	[TISSUE_LAYER:BY_CATEGORY:FINGER:NAIL:FRONT]
	[GO_TO_TAG:ATTACK:SCRATCH:CHILD_TISSUE_LAYER_GROUP:BY_TYPE:STANCE:BY_CATEGORY:ALL:NAIL]
	[ATTACK:PUNCH:BODYPART:BY_CATEGORY:HAND]
		[ATTACK_SKILL:GRASP_STRIKE]
		[ATTACK_VERB:punch:punches]
		[ATTACK_CONTACT_PERC:100]
		[ATTACK_PRIORITY:MAIN]
		[ATTACK_FLAG_WITH]
	[ATTACK:SCRATCH:CHILD_TISSUE_LAYER_GROUP:BY_TYPE:GRASP:BY_CATEGORY:ALL:NAIL]
		[ATTACK_SKILL:GRASP_STRIKE]
		[ATTACK_VERB:scratch:scratches]
		[ATTACK_CONTACT_PERC:100]
		[ATTACK_PENETRATION_PERC:100]
		[ATTACK_FLAG_EDGE]
		[ATTACK_PRIORITY:SECOND]
	[GO_TO_END]
	[SELECT_CASTE:MALE]
		[CASTE_NAME:panda man:panda men:panda man]
	[SELECT_CASTE:FEMALE]
		[CASTE_NAME:panda woman:panda women:panda woman]
	[GO_TO_START]
	[NAME:panda man:panda men:panda man]
	[DESCRIPTION:(Size 130, humanoid) A wild humanoid creature with the head and belly of a panda.]

	[MAXAGE:60:80]
	[CREATURE_TILE:'P']
	[COLOR:3:0:1]

[CREATURE:PENGUIN_MAN]
	[COPY_TAGS_FROM:BIRD_PENGUIN]
	[APPLY_CREATURE_VARIATION:ANIMAL_PERSON]
	[CV_REMOVE_TAG:PET]
	[CV_REMOVE_TAG:MUNDANE]
	[CV_REMOVE_TAG:NATURAL]
	[GO_TO_TAG:BODY]
	[CV_REMOVE_TAG:BODY]
	[CV_ADD_TAG:BODY:HUMANOID:2EYES:2LUNGS:HEART:GUTS:ORGANS:HUMANOID_JOINTS:THROAT:NECK:SPINE:BRAIN:SKULL:4FINGERS:4TOES:BEAK:RIBCAGE]
	[APPLY_CURRENT_CREATURE_VARIATION]
	[GO_TO_END]
	[CHANGE_BODY_SIZE_PERC:500] this also resizes the eggs
	[GO_TO_START]
	[GO_TO_TAG:TISSUE_LAYER:BY_CATEGORY:TOE:TALON:FRONT]
	[TISSUE_LAYER:BY_CATEGORY:FINGER:TALON:FRONT]
	[GO_TO_TAG:ATTACK:BITE:BODYPART:BY_CATEGORY:BEAK]
	[ATTACK:SCRATCH:CHILD_TISSUE_LAYER_GROUP:BY_TYPE:GRASP:BY_CATEGORY:ALL:TALON]
		[ATTACK_SKILL:GRASP_STRIKE]
		[ATTACK_VERB:scratch:scratches]
		[ATTACK_CONTACT_PERC:100]
		[ATTACK_PENETRATION_PERC:100]
		[ATTACK_FLAG_EDGE]
		[ATTACK_PRIORITY:MAIN]
	[GO_TO_END]
	[AT_PEACE_WITH_WILDLIFE]
	[SELECT_CASTE:MALE]
		[CASTE_NAME:penguin man:penguin men:penguin man]
	[SELECT_CASTE:FEMALE]
		[CASTE_NAME:penguin woman:penguin women:penguin woman]
	[GO_TO_START]
	[NAME:penguin man:penguin men:penguin man]
	[DESCRIPTION:(Size 60, humanoid) A humanoid with the head, feet, and feathers of a penguin.]

	[GOOD][SAVAGE]
	
	[POPULATION_NUMBER:30:50]
	[CLUSTER_NUMBER:5:10]

	[MAXAGE:60:80]
	[CREATURE_TILE:'P']
	[COLOR:6:0:0]
	[FREQUENCY:12]

[CREATURE:PLATYPUS_MAN]
	[COPY_TAGS_FROM:PLATYPUS]
	[APPLY_CREATURE_VARIATION:ANIMAL_PERSON]
	[GO_TO_TAG:ATTACK:KICK:BODYPART:BY_CATEGORY:FOOT_REAR]
	[CV_REMOVE_TAG:MUNDANE]
	[CV_REMOVE_TAG:NATURAL]
	[CV_REMOVE_TAG:PET]
	[CV_CONVERT_TAG]
		[CVCT_MASTER:ATTACK:KICK:BODYPART:BY_CATEGORY]
		[CVCT_TARGET:FOOT_REAR]
		[CVCT_REPLACEMENT:FOOT]
	[APPLY_CURRENT_CREATURE_VARIATION]
	[AT_PEACE_WITH_WILDLIFE]
	[GO_TO_END]
	[CHANGE_BODY_SIZE_PERC:1000]
	[SELECT_CASTE:MALE]
		[CASTE_NAME:platypus man:platypus men:platypus man]
	[SELECT_CASTE:FEMALE]
		[CASTE_NAME:platypus woman:platypus women:platypus woman]
	[GO_TO_START]
	[NAME:platypus man:platypus men:platypus man]
	[DESCRIPTION:(Size 50, humanoid) A humanoid with the head, tail and poison spurs of a platypus.]
	[POPULATION_NUMBER:30:50]
	[CLUSTER_NUMBER:5:10]
	[MAXAGE:60:80]
	[CREATURE_TILE:'P']
	[COLOR:6:0:1]
	
	[SAVAGE][GOOD]
	
	[LARGE_ROAMING][LARGE_PREDATOR]
	[FREQUENCY:7]
	

[CREATURE:TIGERMAN]
	[DESCRIPTION:(Size 120, quadruped) A large man with the head of a tiger and orange striped fur.]
	[NAME:tiger man:tiger men:tiger man]
	[CASTE_NAME:tiger man:tiger men:tiger man]
	[CHILD:3][GENERAL_CHILD_NAME:tiger man cub:tiger man cubs]
	[CREATURE_TILE:'t'][COLOR:4:0:1]
	[PETVALUE:1400]
	[CAN_LEARN][CAN_SPEAK][LIKES_FIGHTING][NOFEAR]

	[ALL_ACTIVE]
	
	[SAVAGE][GOOD]	

	[BIOME:ANY_TROPICAL_FOREST]
	[BIOME:FOREST_TAIGA]
	[BIOME:ANY_TEMPERATE_FOREST]
	[BIOME:SHRUBLAND_TROPICAL]
	[BIOME:SWAMP_TROPICAL_FRESHWATER]
	[BIOME:SWAMP_TROPICAL_SALTWATER]
	[BIOME:SWAMP_MANGROVE]
	
	[LARGE_ROAMING][LARGE_PREDATOR]
	[FREQUENCY:14]

	[POPULATION_NUMBER:2:10]
	[CLUSTER_NUMBER:1:4]

	[CARNIVORE]
	[MEANDERER]
	[PRONE_TO_RAGE:5]
	[PREFSTRING:stripes]
	[SPEED:680]

	[NATURAL_SKILL:WRESTLING:5] --skills are pretty elite compared to animals.
	[NATURAL_SKILL:DODGING:5]
	[NATURAL_SKILL:BITE:5]
	[NATURAL_SKILL:GRASP_STRIKE:7]
	[NATURAL_SKILL:STANCE_STRIKE:6]
	[NATURAL_SKILL:SITUATIONAL_AWARENESS:8]
	[NATURAL_SKILL:MELEE_COMBAT:3]
	
	[CASTE:FEMALE]
		[FEMALE]
		[BODY:HUMANOID:TAIL:2EYES:NOSE:2LUNGS:HEART:GUTS:ORGANS:HUMANOID_JOINTS:THROAT:NECK:SPINE:BRAIN:SKULL:5FINGERS:5TOES:MOUTH:GENERIC_TEETH_WITH_LARGE_EYE_TEETH:FEMALEGEN:2BREASTS]
	[CASTE:MALE]
		[MALE]
		[BODY:HUMANOID:TAIL:2EYES:NOSE:2LUNGS:HEART:GUTS:ORGANS:HUMANOID_JOINTS:THROAT:NECK:SPINE:BRAIN:SKULL:5FINGERS:5TOES:MOUTH:GENERIC_TEETH_WITH_LARGE_EYE_TEETH:MALEGEN]

	[SELECT_CASTE:ALL]
	[BODYGLOSS:PAW]
	[BODY_DETAIL_PLAN:STANDARD_MATERIALS]
	[BODY_DETAIL_PLAN:STANDARD_TISSUES]
	[BODY_DETAIL_PLAN:VERTEBRATE_TISSUE_LAYERS:SKIN:FAT:MUSCLE:BONE:CARTILAGE]
	[BODY_DETAIL_PLAN:BODY_HAIR_TISSUE_LAYERS:HAIR]
	[USE_MATERIAL_TEMPLATE:CLAW:NAIL_TEMPLATE]
	[USE_TISSUE_TEMPLATE:CLAW:CLAW_TEMPLATE]
	[TISSUE_LAYER:BY_CATEGORY:FINGER:CLAW:FRONT]
	[TISSUE_LAYER:BY_CATEGORY:TOE:CLAW:FRONT]
	[SELECT_TISSUE_LAYER:HEART:BY_CATEGORY:HEART]
	 [PLUS_TISSUE_LAYER:SKIN:BY_CATEGORY:THROAT]
		[TL_MAJOR_ARTERIES]
	[BODY_DETAIL_PLAN:STANDARD_HEAD_POSITIONS]
	[BODY_DETAIL_PLAN:HUMANOID_RIBCAGE_POSITIONS]
	[USE_MATERIAL_TEMPLATE:SINEW:SINEW_TEMPLATE]
	[TENDONS:LOCAL_CREATURE_MAT:SINEW:200]
	[LIGAMENTS:LOCAL_CREATURE_MAT:SINEW:200]
	[HAS_NERVES]
	[USE_MATERIAL_TEMPLATE:BLOOD:BLOOD_TEMPLATE]
	[BLOOD:LOCAL_CREATURE_MAT:BLOOD:LIQUID]
	[CREATURE_CLASS:GENERAL_POISON]
	[GETS_WOUND_INFECTIONS]
	[GETS_INFECTIONS_FROM_ROT]
	[USE_MATERIAL_TEMPLATE:PUS:PUS_TEMPLATE]
	[PUS:LOCAL_CREATURE_MAT:PUS:LIQUID]
	[BODY_SIZE:0:0:12000]
	[BODY_SIZE:1:0:80000]
	[BODY_SIZE:2:0:120000]
	[BODY_APPEARANCE_MODIFIER:LENGTH:90:95:98:100:102:105:110]
	[BODY_APPEARANCE_MODIFIER:HEIGHT:90:95:98:100:102:105:110]
	[BODY_APPEARANCE_MODIFIER:BROADNESS:90:95:98:100:102:105:110]
	[MAXAGE:20:30]
   	[SOUND:ALERT:100:2000:VOCALIZATION:roar:roars:a bloodcurdling roar] --placeholder to entertain adventurers until give proper sounds to half of all creatures.
	[SOUND:PEACEFUL_INTERMITTENT:40:2000:VOCALIZATION:shuffle:shuffles:quiet shuffling]

	[ATTACK:BITE:CHILD_BODYPART_GROUP:BY_CATEGORY:HEAD:BY_CATEGORY:TOOTH]
		[ATTACK_SKILL:BITE]
		[ATTACK_VERB:bite:bites]
		[ATTACK_CONTACT_PERC:100]
		[ATTACK_PENETRATION_PERC:100]
		[ATTACK_FLAG_EDGE]
		[ATTACK_PRIORITY:MAIN]
		[ATTACK_FLAG_CANLATCH]
	[ATTACK:SCRATCH:CHILD_TISSUE_LAYER_GROUP:BY_TYPE:GRASP:BY_CATEGORY:FINGER:CLAW]
		[ATTACK_SKILL:GRASP_STRIKE]
		[ATTACK_VERB:scratch:scratches]
		[ATTACK_CONTACT_PERC:100]
		[ATTACK_PENETRATION_PERC:100]
		[ATTACK_FLAG_EDGE]
		[ATTACK_PRIORITY:MAIN]
	[HOMEOTHERM:10067]
	[SWIMS_INNATE][SWIM_SPEED:2500]

	[SELECT_CASTE:ALL]
		[SET_TL_GROUP:BY_CATEGORY:ALL:HAIR]
			[TL_COLOR_MODIFIER:STRIPES_ORANGE_BLACK:1]
				[TLCM_NOUN:hair:SINGULAR]
		[SET_TL_GROUP:BY_CATEGORY:ALL:SKIN]
	[TL_COLOR_MODIFIER:BROWN:1:BURNT_UMBER:1:CINNAMON:1:COPPER:1:DARK_BROWN:1:DARK_PEACH:1:DARK_TAN:1:ECRU:1:PALE_BROWN:1:PALE_CHESTNUT:1:PALE_PINK:1:PEACH:1:PINK:1:RAW_UMBER:1:SEPIA:1:TAN:1:TAUPE_PALE:1:TAUPE_SANDY:1]
				[TLCM_NOUN:skin:SINGULAR]
		[SET_TL_GROUP:BY_CATEGORY:EYE:EYE]
			[TL_COLOR_MODIFIER:IRIS_EYE_YELLOW:1]
				[TLCM_NOUN:eyes:PLURAL]
	[SELECT_MATERIAL:ALL]
		[MULTIPLY_VALUE:3]

=======================================================================================================================

[CREATURE:BIRD_FIREBIRD]
	[DESCRIPTION:(Size 300, flier) A magical glowing giant bird from unknown lands, which is said to be both a blessing and a bringer of doom to its captor.]
	[NAME:firebird:firebirds:firebird]
	[CASTE_NAME:firebird:firebirds:firebird]
	[CREATURE_TILE:'F']
	[COLOR:6:0:1]
	[SPEED:750]
	[NONAUSEA][FIREIMMUNE][FIREIMMUNE_SUPER][FIREBREATH]
	[FLEEQUICK]
	[PETVALUE:2800]
	[FLIER][LIGHT_GEN][IMMOLATE]
	[VIEWRANGE:32]

	[NATURAL]
	[PET]
	[ALL_ACTIVE]
	
	[SAVAGE][GOOD]
	
	[BIOME:ANY_LAND]
	
	[LARGE_ROAMING][LARGE_PREDATOR]
	[FREQUENCY:7]
	
	[POPULATION_NUMBER:1:10]
	[CLUSTER_NUMBER:1:1]
	
	[HOMEOTHERM:10067]
	[PREFSTRING:flaming aura]
	[NOSKIN]
	[NOBONES]
	[BODY:HUMANOID_ARMLESS_SMALL:HUMANOID_ARMLESS_JOINTS:2WINGS:2WINGS_JOINTS:2EYES:2LUNGS:HEART:GUTS:ORGANS:THROAT:NECK:SPINE:BRAIN:SKULL:4TOES:BEAK:RIBCAGE]
	[BODY_DETAIL_PLAN:TOUGHSTANDARD_MATERIALS]
		[REMOVE_MATERIAL:HAIR]
		[USE_MATERIAL_TEMPLATE:FEATHER:FEATHER_TEMPLATE]
	[BODY_DETAIL_PLAN:STANDARD_TISSUES]
		[REMOVE_TISSUE:HAIR]
		[USE_TISSUE_TEMPLATE:FEATHER:FEATHER_TEMPLATE]
	[BODY_DETAIL_PLAN:VERTEBRATE_TISSUE_LAYERS:SKIN:FAT:MUSCLE:BONE:CARTILAGE]
	[BODY_DETAIL_PLAN:BODY_HAIR_TISSUE_LAYERS:FEATHER]
	[USE_MATERIAL_TEMPLATE:TALON:NAIL_TEMPLATE]
	[USE_TISSUE_TEMPLATE:TALON:TALON_TEMPLATE]
	[TISSUE_LAYER:BY_CATEGORY:TOE:TALON:FRONT]
	[BODY_DETAIL_PLAN:EGG_MATERIALS]
	[SELECT_TISSUE_LAYER:HEART:BY_CATEGORY:HEART]
	 [PLUS_TISSUE_LAYER:SKIN:BY_CATEGORY:THROAT]
		[TL_MAJOR_ARTERIES]
	[BODY_DETAIL_PLAN:STANDARD_HEAD_POSITIONS]
	[BODY_DETAIL_PLAN:HUMANOID_RIBCAGE_POSITIONS]
	[USE_MATERIAL_TEMPLATE:SINEW:SINEW_TEMPLATE]
	[TENDONS:LOCAL_CREATURE_MAT:SINEW:200]
	[LIGAMENTS:LOCAL_CREATURE_MAT:SINEW:200]
	[HAS_NERVES]
	[USE_MATERIAL_TEMPLATE:BLOOD:BLOOD_TEMPLATE]
	[BLOOD:LOCAL_CREATURE_MAT:BLOOD:LIQUID]
	[CREATURE_CLASS:GENERAL_POISON]
	[GETS_WOUND_INFECTIONS]
	[GETS_INFECTIONS_FROM_ROT]
	[USE_MATERIAL_TEMPLATE:PUS:PUS_TEMPLATE]
	[PUS:LOCAL_CREATURE_MAT:PUS:LIQUID]
	[BODY_SIZE:0:0:500]
	[BODY_SIZE:1:0:80000]
	[BODY_SIZE:2:0:300000]
	[BODY_APPEARANCE_MODIFIER:LENGTH:90:95:98:100:102:105:110]
	[BODY_APPEARANCE_MODIFIER:HEIGHT:90:95:98:100:102:105:110]
	[BODY_APPEARANCE_MODIFIER:BROADNESS:90:95:98:100:102:105:110]
	[MAXAGE:50:90]
	[ATTACK:BITE:BODYPART:BY_CATEGORY:BEAK]
	[ATTACK_SKILL:BITE]
	[ATTACK_VERB:peck:pecks]
	[ATTACK_CONTACT_PERC:100]
	[ATTACK_PENETRATION_PERC:100]
	[ATTACK_FLAG_EDGE]
	[ATTACK_PRIORITY:MAIN]
	[ATTACK_FLAG_CANLATCH]
	[ATTACK:SCRATCH:CHILD_TISSUE_LAYER_GROUP:BY_TYPE:STANCE:BY_CATEGORY:ALL:TALON]
	[ATTACK_SKILL:STANCE_STRIKE]
	[ATTACK_VERB:snatch at:snatches at]
	[ATTACK_CONTACT_PERC:100]
	[ATTACK_PENETRATION_PERC:100]
	[ATTACK_FLAG_EDGE]
	[ATTACK_PRIORITY:SECOND]
	[ATTACK_FLAG_WITH]
	[CASTE:FEMALE]
		[FEMALE]
		[LAYS_EGGS]
			[EGG_MATERIAL:LOCAL_CREATURE_MAT:EGGSHELL:SOLID]
			[EGG_MATERIAL:LOCAL_CREATURE_MAT:EGG_WHITE:LIQUID]
			[EGG_MATERIAL:LOCAL_CREATURE_MAT:EGG_YOLK:LIQUID]
			[EGG_SIZE:600]
			[CLUTCH_SIZE:1:1]
	[CASTE:MALE]
		[MALE]
	[SELECT_CASTE:ALL]
			[SET_TL_GROUP:BY_CATEGORY:ALL:FEATHER]
				[TL_COLOR_MODIFIER:ORANGE:1]
					[TLCM_NOUN:feathers:PLURAL]
			[SET_TL_GROUP:BY_CATEGORY:ALL:SKIN]
				[TL_COLOR_MODIFIER:RED:1]
					[TLCM_NOUN:skin:SINGULAR]
			[SET_TL_GROUP:BY_CATEGORY:EYE:EYE]
				[TL_COLOR_MODIFIER:BLACK:1]
					[TLCM_NOUN:eyes:PLURAL]
	[SELECT_MATERIAL:ALL]
		[MULTIPLY_VALUE:10]
		[HEATDAM_POINT:NONE]
		[IGNITE_POINT:NONE]
		[IF_EXISTS_SET_MELTING_POINT:55000]
		[IF_EXISTS_SET_BOILING_POINT:57000]
		[SPEC_HEAT:30000]
		[SELECT_MATERIAL:BLOOD]
		 [PLUS_MATERIAL:PUS]
			[MELTING_POINT:10000]

[CREATURE:BIRD_SWAN_GIANT]
	[DESCRIPTION:(Size 120, flier) A deer-sized water bird that eats underwater plants with the help of its incredible neck. It seems to be too fat to fly.]
	[NAME:giant swan:giant swans:giant swan]
	[CASTE_NAME:giant swan:giant swans:giant swan]
	[GENERAL_CHILD_NAME:giant swan chick:giant swan chicks]
	[CREATURE_TILE:'S']
	[COLOR:7:0:1]
	[LARGE_ROAMING]
	[PETVALUE:400]
	[FLIER]
	[CHILD:1]
	
	[NATURAL]
	[PET]
	[ALL_ACTIVE]
	
	[SAVAGE][GOOD]

	[BIOME:ANY_WETLAND]
	[BIOME:ANY_LAKE]
	[BIOME:ANY_RIVER]

	[LARGE_ROAMING]
	[FREQUENCY:17]

	[POPULATION_NUMBER:1:6]
	[CLUSTER_NUMBER:1:4]

	[MAXAGE:10:25]
	[PREFSTRING:magnificent necks]
	[PREFSTRING:giant white feathers]
	[LAIR:SHRINE:100]
	
	[HOMEOTHERM:10067]
	[BODY:HUMANOID_ARMLESS_SMALL:HUMANOID_ARMLESS_JOINTS:2WINGS:2WINGS_JOINTS:2EYES:2LUNGS:HEART:GUTS:ORGANS:THROAT:NECK:SPINE:BRAIN:SKULL:4TOES:BEAK:RIBCAGE]
	[BODY_DETAIL_PLAN:STANDARD_MATERIALS]
		[REMOVE_MATERIAL:HAIR]
		[USE_MATERIAL_TEMPLATE:FEATHER:FEATHER_TEMPLATE]
	[BODY_DETAIL_PLAN:STANDARD_TISSUES]
		[REMOVE_TISSUE:HAIR]
		[USE_TISSUE_TEMPLATE:FEATHER:FEATHER_TEMPLATE]
	[BODY_DETAIL_PLAN:VERTEBRATE_TISSUE_LAYERS:SKIN:FAT:MUSCLE:BONE:CARTILAGE]
	[BODY_DETAIL_PLAN:BODY_HAIR_TISSUE_LAYERS:FEATHER]
	[USE_MATERIAL_TEMPLATE:TALON:NAIL_TEMPLATE]
	[USE_TISSUE_TEMPLATE:TALON:TALON_TEMPLATE]
	[TISSUE_LAYER:BY_CATEGORY:TOE:TALON:FRONT]
	[BODY_DETAIL_PLAN:EGG_MATERIALS]
	[SELECT_TISSUE_LAYER:HEART:BY_CATEGORY:HEART]
	 [PLUS_TISSUE_LAYER:SKIN:BY_CATEGORY:THROAT]
		[TL_MAJOR_ARTERIES]
	[BODY_DETAIL_PLAN:STANDARD_HEAD_POSITIONS]
	[BODY_DETAIL_PLAN:HUMANOID_RIBCAGE_POSITIONS]
	[USE_MATERIAL_TEMPLATE:SINEW:SINEW_TEMPLATE]
	[TENDONS:LOCAL_CREATURE_MAT:SINEW:200]
	[LIGAMENTS:LOCAL_CREATURE_MAT:SINEW:200]
	[HAS_NERVES]
	[USE_MATERIAL_TEMPLATE:BLOOD:BLOOD_TEMPLATE]
	[BLOOD:LOCAL_CREATURE_MAT:BLOOD:LIQUID]
	[CREATURE_CLASS:GENERAL_POISON]
	[GETS_WOUND_INFECTIONS]
	[GETS_INFECTIONS_FROM_ROT]
	[USE_MATERIAL_TEMPLATE:PUS:PUS_TEMPLATE]
	[PUS:LOCAL_CREATURE_MAT:PUS:LIQUID]
	[BODY_APPEARANCE_MODIFIER:LENGTH:98:98:98:102:105:105:110]
	[BODY_APPEARANCE_MODIFIER:HEIGHT:90:95:98:100:102:105:110]
	[BODY_APPEARANCE_MODIFIER:BROADNESS:90:95:98:100:102:105:110]
	[BODY_SIZE:0:0:1000]
	[BODY_SIZE:1:0:80000]
	[BODY_SIZE:4:0:120000]
	[ATTACK:BITE:BODYPART:BY_CATEGORY:BEAK]
		[ATTACK_SKILL:BITE]
		[ATTACK_VERB:bite:bites]
		[ATTACK_CONTACT_PERC:100]
		[ATTACK_PENETRATION_PERC:100]
		[ATTACK_FLAG_EDGE]
		[ATTACK_PRIORITY:MAIN]
		--ATTACK_FLAG_CANLATCH]
	[ATTACK:SCRATCH:CHILD_TISSUE_LAYER_GROUP:BY_TYPE:STANCE:BY_CATEGORY:ALL:TALON]
		[ATTACK_SKILL:STANCE_STRIKE]
		[ATTACK_VERB:snatch at:snatches at]
		[ATTACK_CONTACT_PERC:100]
		[ATTACK_PENETRATION_PERC:100]
		[ATTACK_FLAG_EDGE]
		[ATTACK_PRIORITY:SECOND]
		[ATTACK_FLAG_WITH]
	[CASTE:FEMALE]
		[FEMALE]
		[LAYS_EGGS]
			[EGG_MATERIAL:LOCAL_CREATURE_MAT:EGGSHELL:SOLID]
			[EGG_MATERIAL:LOCAL_CREATURE_MAT:EGG_WHITE:LIQUID]
			[EGG_MATERIAL:LOCAL_CREATURE_MAT:EGG_YOLK:LIQUID]
			[EGG_SIZE:1200]
			[CLUTCH_SIZE:4:6]
	[CASTE:MALE]
		[MALE]
	[SELECT_CASTE:ALL]
		[SET_TL_GROUP:BY_CATEGORY:ALL:FEATHER]
			[TL_COLOR_MODIFIER:WHITE:1]
				[TLCM_NOUN:feathers:PLURAL]
		[SET_TL_GROUP:BY_CATEGORY:ALL:SKIN]
			[TL_COLOR_MODIFIER:BROWN:1:BURNT_UMBER:1:CINNAMON:1:COPPER:1:DARK_BROWN:1:DARK_PEACH:1:DARK_TAN:1:ECRU:1:PALE_BROWN:1:PALE_CHESTNUT:1:PALE_PINK:1:PEACH:1:PINK:1:RAW_UMBER:1:SEPIA:1:TAN:1:TAUPE_PALE:1:TAUPE_SANDY:1]
				[TLCM_NOUN:skin:SINGULAR]
		[SET_TL_GROUP:BY_CATEGORY:EYE:EYE]
			[TL_COLOR_MODIFIER:BLACK:1]
				[TLCM_NOUN:eyes:PLURAL]